<?xml version="1.0" encoding="UTF-8" standalone="no"?>
<svg
   xmlns:dc="http://purl.org/dc/elements/1.1/"
   xmlns:cc="http://creativecommons.org/ns#"
   xmlns:rdf="http://www.w3.org/1999/02/22-rdf-syntax-ns#"
   xmlns:svg="http://www.w3.org/2000/svg"
   xmlns="http://www.w3.org/2000/svg"
   xmlns:xlink="http://www.w3.org/1999/xlink"
   height="22"
   id="svg11300"
   style="display:inline;enable-background:new"
   version="1.0"
   width="22">
  <title
     id="title8836">Optical Drive</title>
  <metadata
     id="metadata154">
    <rdf:RDF>
      <cc:Work
         rdf:about="">
        <dc:format>image/svg+xml</dc:format>
        <dc:type
           rdf:resource="http://purl.org/dc/dcmitype/StillImage" />
        <dc:title>Optical Drive</dc:title>
        <dc:creator>
          <cc:Agent>
            <dc:title />
          </cc:Agent>
        </dc:creator>
        <dc:contributor>
          <cc:Agent>
            <dc:title />
          </cc:Agent>
        </dc:contributor>
        <dc:source />
        <cc:license
           rdf:resource="" />
        <dc:subject>
          <rdf:Bag />
        </dc:subject>
      </cc:Work>
    </rdf:RDF>
  </metadata>
  <defs
     id="defs3">
    <radialGradient
       xlink:href="#linearGradient3431"
       id="radialGradient3498"
       gradientUnits="userSpaceOnUse"
       gradientTransform="matrix(2.5831757,0,0,0.9436286,-13.121666,-28.19018)"
       cx="6.6730971"
       cy="-76.966545"
       fx="6.6730971"
       fy="-76.966545"
       r="15.5" />
    <radialGradient
       xlink:href="#linearGradient3493"
       id="radialGradient3496"
       gradientUnits="userSpaceOnUse"
       gradientTransform="translate(-5,1.9999994)"
       cx="22"
       cy="-96"
       fx="22"
       fy="-96"
       r="4" />
    <linearGradient
       xlink:href="#linearGradient3513"
       id="linearGradient3494"
       gradientUnits="userSpaceOnUse"
       x1="23.931919"
       y1="-104.15109"
       x2="23.931919"
       y2="-94.357811" />
    <linearGradient
       xlink:href="#linearGradient3552"
       id="linearGradient3491"
       gradientUnits="userSpaceOnUse"
       x1="33.067142"
       y1="-68.606171"
       x2="12.312527"
       y2="-115.58344" />
    <linearGradient
       xlink:href="#linearGradient3757"
       id="linearGradient3489"
       gradientUnits="userSpaceOnUse"
       gradientTransform="translate(272.72215,49.944103)"
       x1="86.5"
       y1="27.988253"
       x2="78.9375"
       y2="35.8125" />
    <radialGradient
       xlink:href="#linearGradient3431"
       id="radialGradient3479"
       gradientUnits="userSpaceOnUse"
       gradientTransform="matrix(2.1388215,0,0,0.781307,-10.156447,-10.683516)"
       cx="7.0863543"
       cy="-81.039185"
       fx="7.0863543"
       fy="-81.039185"
       r="15.5" />
    <linearGradient
       xlink:href="#linearGradient3389"
       id="linearGradient3477"
       gradientUnits="userSpaceOnUse"
       x1="34.9375"
       y1="-59.28125"
       x2="34.9375"
       y2="-60.439186" />
    <linearGradient
       xlink:href="#linearGradient3397"
       id="linearGradient3475"
       gradientUnits="userSpaceOnUse"
       x1="12.227922"
       y1="-53.602253"
       x2="12.227922"
       y2="-65.245789" />
    <linearGradient
       xlink:href="#linearGradient3405"
       id="linearGradient3473"
       gradientUnits="userSpaceOnUse"
       x1="21.8125"
       y1="-73.30188"
       x2="21.8125"
       y2="-63.037922" />
    <radialGradient
       xlink:href="#linearGradient3431"
       id="radialGradient7532"
       gradientUnits="userSpaceOnUse"
       gradientTransform="matrix(2.5831757,0,0,0.9436286,-13.121666,-28.19018)"
       cx="6.6730971"
       cy="-76.966545"
       fx="6.6730971"
       fy="-76.966545"
       r="15.5" />
    <radialGradient
       xlink:href="#linearGradient3493"
       id="radialGradient7530"
       gradientUnits="userSpaceOnUse"
       gradientTransform="translate(-5,1.9999994)"
       cx="22"
       cy="-96"
       fx="22"
       fy="-96"
       r="4" />
    <linearGradient
       xlink:href="#linearGradient3513"
       id="linearGradient7528"
       gradientUnits="userSpaceOnUse"
       x1="23.931919"
       y1="-104.15109"
       x2="23.931919"
       y2="-94.357811" />
    <linearGradient
       id="linearGradient3552">
      <stop
         id="stop3554"
         offset="0"
         style="stop-color:#d3d7cf;stop-opacity:1" />
      <stop
         id="stop3556"
         offset="1"
         style="stop-color:#eeeeec;stop-opacity:1" />
    </linearGradient>
    <linearGradient
       xlink:href="#linearGradient3552"
       id="linearGradient7541"
       gradientUnits="userSpaceOnUse"
       gradientTransform="matrix(0.64096729,0,0,0.642378,291.66085,236.14877)"
       x1="33.067142"
       y1="-68.606171"
       x2="12.312527"
       y2="-115.58344" />
    <linearGradient
       xlink:href="#linearGradient3757"
       id="linearGradient7544"
       gradientUnits="userSpaceOnUse"
       gradientTransform="matrix(0.6409517,0,0,0.6423936,258.71187,126.53223)"
       x1="86.5"
       y1="27.988253"
       x2="78.9375"
       y2="35.8125" />
    <radialGradient
       xlink:href="#linearGradient3431"
       id="radialGradient7310"
       gradientUnits="userSpaceOnUse"
       gradientTransform="matrix(1.0830857,-1.0123315e-4,-1.4687923e-4,0.3934807,333.45734,218.43108)"
       cx="6.6730971"
       cy="-76.966545"
       fx="6.6730971"
       fy="-76.966545"
       r="15.5" />
    <radialGradient
       xlink:href="#linearGradient3493"
       id="radialGradient7314"
       gradientUnits="userSpaceOnUse"
       gradientTransform="matrix(0.6165332,0,0,0.61752678,332.53918,250.21835)"
       cx="22"
       cy="-96"
       fx="22"
       fy="-96"
       r="4" />
    <linearGradient
       xlink:href="#linearGradient3513"
       id="linearGradient7317"
       gradientUnits="userSpaceOnUse"
       x1="23.931919"
       y1="-104.15109"
       x2="23.931919"
       y2="-94.357811"
       gradientTransform="matrix(0.4374998,0,0,0.43820489,338.66542,232.12703)" />
    <linearGradient
       id="linearGradient3757">
      <stop
         style="stop-color:#000000;stop-opacity:1"
         offset="0"
         id="stop3759" />
      <stop
         style="stop-color:#000000;stop-opacity:0"
         offset="1"
         id="stop3761" />
    </linearGradient>
    <linearGradient
       xlink:href="#linearGradient3757"
       id="linearGradient7301"
       gradientUnits="userSpaceOnUse"
       gradientTransform="matrix(0.4375152,0.04523616,-0.04588829,0.4332402,305.75047,175.03178)"
       x1="86.5"
       y1="27.988253"
       x2="78.9375"
       y2="35.8125" />
    <radialGradient
       xlink:href="#linearGradient3431"
       id="radialGradient7514"
       gradientUnits="userSpaceOnUse"
       gradientTransform="matrix(2.1388215,0,0,0.781307,-10.156447,-10.683516)"
       cx="7.0863543"
       cy="-81.039185"
       fx="7.0863543"
       fy="-81.039185"
       r="15.5" />
    <linearGradient
       xlink:href="#linearGradient3389"
       id="linearGradient7512"
       gradientUnits="userSpaceOnUse"
       x1="34.9375"
       y1="-59.28125"
       x2="34.9375"
       y2="-60.439186" />
    <linearGradient
       xlink:href="#linearGradient3397"
       id="linearGradient7510"
       gradientUnits="userSpaceOnUse"
       x1="12.227922"
       y1="-53.602253"
       x2="12.227922"
       y2="-65.245789" />
    <linearGradient
       xlink:href="#linearGradient3405"
       id="linearGradient7508"
       gradientUnits="userSpaceOnUse"
       x1="21.8125"
       y1="-73.30188"
       x2="21.8125"
       y2="-63.037922" />
    <linearGradient
       id="linearGradient3513">
      <stop
         id="stop3515"
         offset="0"
         style="stop-color:#f57900;stop-opacity:1" />
      <stop
         id="stop3517"
         offset="1"
         style="stop-color:#fce94f;stop-opacity:1" />
    </linearGradient>
    <linearGradient
       id="linearGradient3493">
      <stop
         id="stop3495"
         offset="0"
         style="stop-color:#ffffff;stop-opacity:1" />
      <stop
         id="stop3503"
         offset="0.81308645"
         style="stop-color:#ffffff;stop-opacity:1;" />
      <stop
         id="stop3501"
         offset="0.84008509"
         style="stop-color:#fdf4a7;stop-opacity:1;" />
      <stop
         id="stop3497"
         offset="1"
         style="stop-color:#fce94f;stop-opacity:0;" />
    </linearGradient>
    <linearGradient
       id="linearGradient3431">
      <stop
         id="stop3433"
         offset="0"
         style="stop-color:#ffffff;stop-opacity:1;" />
      <stop
         id="stop3435"
         offset="1"
         style="stop-color:#ffffff;stop-opacity:0;" />
    </linearGradient>
    <linearGradient
       id="linearGradient3405">
      <stop
         id="stop3407"
         offset="0"
         style="stop-color:#729fcf;stop-opacity:1;" />
      <stop
         id="stop3409"
         offset="1"
         style="stop-color:#ffffff;stop-opacity:1;" />
    </linearGradient>
    <linearGradient
       id="linearGradient3397">
      <stop
         id="stop3399"
         offset="0"
         style="stop-color:#e9b96e;stop-opacity:1" />
      <stop
         id="stop3401"
         offset="1"
         style="stop-color:#653f01;stop-opacity:1" />
    </linearGradient>
    <linearGradient
       id="linearGradient3389">
      <stop
         id="stop3391"
         offset="0"
         style="stop-color:#8f5902;stop-opacity:1" />
      <stop
         id="stop3393"
         offset="1"
         style="stop-color:#8f5902;stop-opacity:0" />
    </linearGradient>
    <linearGradient
       xlink:href="#linearGradient3405"
       id="linearGradient4303"
       gradientUnits="userSpaceOnUse"
       gradientTransform="matrix(0.986644,0,0,0.9999996,0.4835573,0.00296045)"
       x1="21.8125"
       y1="-73.30188"
       x2="21.8125"
       y2="-63.037922" />
    <linearGradient
       xlink:href="#linearGradient3397"
       id="linearGradient4305"
       gradientUnits="userSpaceOnUse"
       x1="12.227922"
       y1="-53.602253"
       x2="12.227922"
       y2="-65.245789" />
    <linearGradient
       xlink:href="#linearGradient3389"
       id="linearGradient4307"
       gradientUnits="userSpaceOnUse"
       x1="34.9375"
       y1="-59.28125"
       x2="34.9375"
       y2="-60.439186" />
    <radialGradient
       xlink:href="#linearGradient3431"
       id="radialGradient4309"
       gradientUnits="userSpaceOnUse"
       gradientTransform="matrix(1.9252502,3.392304e-4,1.0339257e-4,0.6827756,-6.7735354,-16.894024)"
       cx="7.0863543"
       cy="-81.039185"
       fx="7.0863543"
       fy="-81.039185"
       r="15.5" />
    <linearGradient
       xlink:href="#linearGradient3513"
       id="linearGradient4311"
       gradientUnits="userSpaceOnUse"
       gradientTransform="matrix(0.28134,0,0,0.2526013,3.2104194,32.908556)"
       x1="23.931919"
       y1="-104.15109"
       x2="23.931919"
       y2="-94.357811" />
    <radialGradient
       xlink:href="#linearGradient3493"
       id="radialGradient4313"
       gradientUnits="userSpaceOnUse"
       gradientTransform="matrix(0.3964698,0,0,0.3655725,-0.729251,44.221534)"
       cx="22"
       cy="-96"
       fx="22"
       fy="-96"
       r="4" />
    <radialGradient
       xlink:href="#linearGradient3431"
       id="radialGradient4315"
       gradientUnits="userSpaceOnUse"
       gradientTransform="matrix(0.6665143,-5.4852341e-5,-9.038722e-5,0.2132043,0.318304,24.129578)"
       cx="6.6730971"
       cy="-76.966545"
       fx="6.6730971"
       fy="-76.966545"
       r="15.5" />
    <linearGradient
       xlink:href="#linearGradient3405"
       id="linearGradient8755"
       gradientUnits="userSpaceOnUse"
       x1="21.8125"
       y1="-73.30188"
       x2="21.8125"
       y2="-63.037922" />
    <linearGradient
       xlink:href="#linearGradient3397"
       id="linearGradient8757"
       gradientUnits="userSpaceOnUse"
       x1="12.227922"
       y1="-53.602253"
       x2="12.227922"
       y2="-65.245789" />
    <linearGradient
       xlink:href="#linearGradient3389"
       id="linearGradient8759"
       gradientUnits="userSpaceOnUse"
       x1="34.9375"
       y1="-59.28125"
       x2="34.9375"
       y2="-60.439186" />
    <radialGradient
       xlink:href="#linearGradient3431"
       id="radialGradient8761"
       gradientUnits="userSpaceOnUse"
       gradientTransform="matrix(2.1388215,0,0,0.781307,-10.156447,-10.683516)"
       cx="7.0863543"
       cy="-81.039185"
       fx="7.0863543"
       fy="-81.039185"
       r="15.5" />
    <linearGradient
       id="linearGradient3242-7-3-8-0-4-58-06">
      <stop
         offset="0"
         style="stop-color:#cdf87e;stop-opacity:1"
         id="stop3244-5-8-5-6-4-3-8" />
      <stop
         offset="0.26238"
         style="stop-color:#a2e34f;stop-opacity:1"
         id="stop3246-9-5-1-5-3-0-7" />
      <stop
         offset="0.66093999"
         style="stop-color:#68b723;stop-opacity:1"
         id="stop3248-7-2-0-7-5-35-9" />
      <stop
         offset="1"
         style="stop-color:#1d7e0d;stop-opacity:1"
         id="stop3250-8-2-8-5-6-40-4" />
    </linearGradient>
    <radialGradient
       gradientTransform="matrix(0,0.52544994,-0.5716256,0,46.193389,-21.123812)"
       gradientUnits="userSpaceOnUse"
       xlink:href="#linearGradient3242-7-3-8-0-4-58-06"
       id="radialGradient3900-3"
       fy="48.216358"
       fx="65.297462"
       r="31.000002"
       cy="48.216358"
       cx="65.297462" />
    <linearGradient
       gradientTransform="matrix(0.2817955,0,0,0.2800956,12.196562,12.014885)"
       gradientUnits="userSpaceOnUse"
       xlink:href="#linearGradient4154"
       id="linearGradient3030"
       y2="35.62291"
       x2="24.138529"
       y1="10.631441"
       x1="24.138529" />
    <linearGradient
       id="linearGradient4154">
      <stop
         offset="0"
         style="stop-color:#ffffff;stop-opacity:1"
         id="stop4156" />
      <stop
         offset="0.00000002"
         style="stop-color:#ffffff;stop-opacity:0.23529412"
         id="stop4158" />
      <stop
         offset="1"
         style="stop-color:#ffffff;stop-opacity:0.15686275"
         id="stop4160" />
      <stop
         offset="1"
         style="stop-color:#ffffff;stop-opacity:0.39215687"
         id="stop4162" />
    </linearGradient>
    <linearGradient
       gradientTransform="matrix(0.2817955,0,0,0.2800956,12.178741,12.02218)"
       gradientUnits="userSpaceOnUse"
       xlink:href="#linearGradient4333"
       id="linearGradient3030-1"
       y2="24.912279"
       x2="24.138529"
       y1="21.34207"
       x1="24.138529" />
    <linearGradient
       id="linearGradient4333">
      <stop
         id="stop4335"
         style="stop-color:#ffffff;stop-opacity:1"
         offset="0" />
      <stop
         id="stop4337"
         style="stop-color:#ffffff;stop-opacity:0.23529412"
         offset="0.00000019" />
      <stop
         id="stop4339"
         style="stop-color:#ffffff;stop-opacity:0.15686275"
         offset="1" />
      <stop
         id="stop4341"
         style="stop-color:#ffffff;stop-opacity:0.39215687"
         offset="1" />
    </linearGradient>
    <linearGradient
       xlink:href="#linearGradient3587-6-5"
       id="linearGradient2393"
       gradientUnits="userSpaceOnUse"
       gradientTransform="matrix(0.89999989,0,0,0.9000046,-273.39996,-157.89474)"
       x1="9"
       y1="3"
       x2="9"
       y2="21" />
    <linearGradient
       id="linearGradient3587-6-5">
      <stop
         id="stop3589-9-2"
         style="stop-color:#000000;stop-opacity:1"
         offset="0" />
      <stop
         id="stop3591-7-4"
         style="stop-color:#363636;stop-opacity:1"
         offset="1" />
    </linearGradient>
    <linearGradient
       xlink:href="#linearGradient3587-6-5"
       id="linearGradient2390"
       gradientUnits="userSpaceOnUse"
       gradientTransform="matrix(0,0.70249175,-0.66031513,0,-246.21217,-190.96959)"
       x1="50.925655"
       y1="11.648451"
       x2="73.986542"
       y2="11.648451" />
  </defs>
  <g
     id="layer5"
     style="display:none"
     transform="translate(-85.918221,-176.64645)">
    <rect
       style="display:inline;opacity:0.4;fill:#ffffff;fill-opacity:1;stroke:#ffffff;stroke-width:1;stroke-linecap:round;stroke-linejoin:round;stroke-miterlimit:4;stroke-dasharray:none;stroke-dashoffset:0;stroke-opacity:1;enable-background:new"
       id="rect1537"
       width="12.001775"
       height="8.0105247"
       x="305.07303"
       y="225.52266"
       rx="0.9760828"
       ry="0.97608274"
       transform="matrix(0.99999999,-1.0836171e-4,-3.2200485e-4,0.99999995,0,0)" />
    <rect
       transform="matrix(1,3.7254202e-5,9.6323724e-4,0.99999954,0,0)"
       ry="0.37237826"
       rx="0.41735527"
       y="187.61238"
       x="305.66818"
       height="9.5249958"
       width="16.423777"
       id="rect1570"
       style="display:inline;opacity:0.4;fill:#ffffff;fill-opacity:1;stroke:#ffffff;stroke-width:1.70000041;stroke-linecap:round;stroke-linejoin:round;stroke-miterlimit:4;stroke-dasharray:none;stroke-dashoffset:0;stroke-opacity:1;enable-background:new" />
    <rect
       transform="matrix(0.99999871,-0.0016054,0.00272894,0.99999628,0,0)"
       ry="0.55243105"
       rx="0.61902368"
       y="141.51221"
       x="306.46188"
       height="14.130533"
       width="24.359838"
       id="rect1584"
       style="display:inline;opacity:0.4;fill:#ffffff;fill-opacity:1;stroke:#fdfdfd;stroke-width:1.70000052;stroke-linecap:round;stroke-linejoin:round;stroke-miterlimit:4;stroke-dasharray:none;stroke-dashoffset:0;stroke-opacity:1;enable-background:new" />
    <rect
       transform="rotate(-0.00179339)"
       ry="0.85632372"
       rx="0.96315491"
       y="72.558128"
       x="301.5463"
       height="21.903748"
       width="37.9021"
       id="rect1591"
       style="display:inline;opacity:0.4;fill:#fefefe;fill-opacity:1;stroke:#fbfff5;stroke-width:1.09617639;stroke-linecap:round;stroke-linejoin:round;stroke-miterlimit:4;stroke-dasharray:none;stroke-dashoffset:0;stroke-opacity:1;enable-background:new" />
  </g>
  <g
     id="layer3"
     style="display:none"
     transform="translate(-85.918221,-176.64645)">
    <g
       style="display:inline;enable-background:new"
       id="g1240"
       transform="translate(29.875262,-6.5407377)">
      <rect
         style="display:inline;fill:#ffffff;fill-opacity:1;stroke:#888a85;stroke-width:1.00000012;stroke-linecap:round;stroke-linejoin:round;stroke-miterlimit:4;stroke-dasharray:none;stroke-dashoffset:0;stroke-opacity:1"
         id="rect6569"
         width="11.994837"
         height="8.0105247"
         x="303.57199"
         y="219.52251"
         rx="0.96943378"
         ry="0.96943367"
         transform="matrix(0.99999999,-1.0842438e-4,-3.2181866e-4,0.99999995,0,0)" />
      <g
         transform="matrix(0.2541308,-0.00152836,0.00128078,0.2530206,304.34497,240.39414)"
         id="g3618">
        <rect
           transform="matrix(1,-8.1768806e-5,-6.7312468e-5,1,0,0)"
           style="opacity:1;fill:url(#linearGradient4303);fill-opacity:1;stroke:#729fcf;stroke-width:3.94354439;stroke-linecap:round;stroke-linejoin:miter;stroke-miterlimit:4;stroke-dasharray:none;stroke-dashoffset:0;stroke-opacity:1"
           id="rect3620"
           width="31.572609"
           height="15.999993"
           x="4.9234552"
           y="-74.497009"
           rx="0"
           ry="0" />
        <path
           style="fill:url(#linearGradient4305);fill-opacity:1;fill-rule:evenodd;stroke:url(#linearGradient4307);stroke-width:3.9435451px;stroke-linecap:butt;stroke-linejoin:miter;stroke-opacity:1"
           d="m 5,-58.5 c 1.4374991,-7.5 3.9476793,-4.798522 6.1875,-11.1875 1.313216,0.771838 1.799196,0.267024 2.8125,1.125 1.008661,1.252341 1.472316,3.231357 2,5.125 C 18.902977,-68 19.560828,-62 23.1875,-61.0625 27,-62.47312 27.5,-71 29.5,-70 c 0.817656,-0.761636 1.563694,-5.577727 2.5,-2 1,4 3.664333,8.257 4.5,12 v 1.5 z"
           id="path3622" />
        <path
           style="opacity:0.5249042;fill:url(#radialGradient4309);fill-opacity:1;stroke:none;stroke-width:1;stroke-linecap:round;stroke-linejoin:miter;stroke-miterlimit:4;stroke-dashoffset:0;stroke-opacity:1"
           d="m 6.8610913,-72.223191 27.9045067,0.0049 9.26e-4,6.117223 c -14.710145,-2.68259 -23.778749,1.499684 -27.9035801,6.112305 z"
           id="path3624" />
      </g>
    </g>
    <g
       style="display:inline;enable-background:new"
       id="g6655"
       transform="translate(346.12959,218.98832)">
      <rect
         transform="matrix(1,-1.086961e-4,-3.2101412e-4,0.9999999,0,0)"
         ry="1.0319406"
         rx="1.0319406"
         y="4.5016522"
         x="3.5408463"
         height="8.0105247"
         width="11.964852"
         id="rect3548"
         style="fill:#ffffff;fill-opacity:1;stroke:#888a85;stroke-width:1.00000012;stroke-linecap:round;stroke-linejoin:round;stroke-miterlimit:4;stroke-dasharray:none;stroke-dashoffset:0;stroke-opacity:1" />
      <g
         transform="matrix(0.8918502,0,0,1,1.5115706,0)"
         id="g6623">
        <rect
           ry="0"
           rx="0"
           y="6.5117211"
           x="4.4764481"
           height="4.0416207"
           width="9.0028801"
           id="rect3554"
           style="fill:url(#linearGradient4311);fill-opacity:1;stroke:#f57900;stroke-width:1.05889797;stroke-linecap:round;stroke-linejoin:miter;stroke-miterlimit:4;stroke-dasharray:none;stroke-dashoffset:0;stroke-opacity:1"
           transform="matrix(1,-8.4382155e-5,-4.1347225e-4,0.9999999,0,0)" />
        <rect
           style="fill:url(#radialGradient4313);fill-opacity:1;stroke:none;stroke-width:1;stroke-linecap:round;stroke-linejoin:miter;stroke-miterlimit:4;stroke-dasharray:none;stroke-dashoffset:0;stroke-opacity:1"
           id="rect3556"
           width="3.1717584"
           height="2.9245806"
           x="6.4072056"
           y="7.6642799"
           transform="matrix(1,-8.6658265e-5,-4.0261224e-4,0.9999999,0,0)" />
        <path
           style="fill:#000000;fill-rule:evenodd;stroke:#000000;stroke-width:1.05889809px;stroke-linecap:butt;stroke-linejoin:miter;stroke-opacity:1"
           d="M 4.472138,10.423257 C 4.969041,9.9315407 5.241589,9.8728775 6.529835,9.4340592 c 0.708044,0.5439601 1.584104,0.8438168 2.40881,0.4051274 1.028009,-0.6244248 1.670541,0.049454 2.655421,-0.6811946 0.449865,0.2323536 0.774929,0.4809317 1.881161,0.7456551 l -2.61e-4,0.6485369 -9.00288,7.8e-4 z"
           id="path3558" />
        <path
           id="path3560"
           d="M 5.001341,7.0006583 13,7 12.999329,8.5815861 C 8.783164,7.8890288 6.183063,8.9709681 5,10.16383 Z"
           style="opacity:0.75478929;fill:url(#radialGradient4315);fill-opacity:1;stroke:none;stroke-width:1;stroke-linecap:round;stroke-linejoin:miter;stroke-miterlimit:4;stroke-dashoffset:0;stroke-opacity:1" />
      </g>
    </g>
    <g
       style="display:inline;enable-background:new"
       id="g1289"
       transform="translate(24.8125,-6)">
      <g
         transform="matrix(0.4167956,-0.1143875,0.1141588,0.4176305,312.76105,214.9311)"
         id="g3612">
        <rect
           style="opacity:1;fill:#eeeeec;fill-opacity:1;stroke:#888a85;stroke-width:3.92991471;stroke-linecap:round;stroke-linejoin:round;stroke-miterlimit:4;stroke-dasharray:none;stroke-dashoffset:0;stroke-opacity:1"
           id="rect3614"
           width="38"
           height="21.999998"
           x="1.5"
           y="-77.5"
           rx="0.96564269"
           ry="0.86008656" />
        <rect
           style="opacity:1;fill:none;fill-opacity:1;stroke:#ffffff;stroke-width:2.31171489;stroke-linecap:round;stroke-linejoin:round;stroke-miterlimit:4;stroke-dasharray:none;stroke-dashoffset:0;stroke-opacity:1"
           id="rect3616"
           width="36"
           height="20"
           x="2.5"
           y="-76.5"
           rx="0"
           ry="0" />
        <g
           id="g6586">
          <rect
             ry="0"
             rx="0"
             y="-74.5"
             x="4.5"
             height="16"
             width="32"
             id="rect6588"
             style="opacity:1;fill:url(#linearGradient7508);fill-opacity:1;stroke:#729fcf;stroke-width:2.31171489;stroke-linecap:round;stroke-linejoin:miter;stroke-miterlimit:4;stroke-dasharray:none;stroke-dashoffset:0;stroke-opacity:1" />
          <path
             id="path6590"
             d="m 5,-58.5 c 1.4374991,-7.5 3.9476793,-4.798522 6.1875,-11.1875 1.313216,0.771838 1.799196,0.267024 2.8125,1.125 1.008661,1.252341 1.472316,3.231357 2,5.125 C 18.902977,-68 19.560828,-62 23.1875,-61.0625 27,-62.47312 27.5,-71 29.5,-70 c 0.817656,-0.761636 1.563694,-5.577727 2.5,-2 1,4 3.664333,8.257 4.5,12 v 1.5 z"
             style="fill:url(#linearGradient7510);fill-opacity:1;fill-rule:evenodd;stroke:url(#linearGradient7512);stroke-width:2.31171513px;stroke-linecap:butt;stroke-linejoin:miter;stroke-opacity:1" />
          <path
             id="path6592"
             d="m 5,-74 h 31 v 7 c -16.341516,-3.066748 -26.4168185,1.720898 -31,7 z"
             style="opacity:0.5249042;fill:url(#radialGradient7514);fill-opacity:1;stroke:none;stroke-width:1;stroke-linecap:round;stroke-linejoin:miter;stroke-miterlimit:4;stroke-dashoffset:0;stroke-opacity:1" />
        </g>
      </g>
      <rect
         style="display:inline;opacity:1;fill:none;fill-opacity:1;stroke:#ffffff;stroke-width:1.00000036;stroke-linecap:round;stroke-linejoin:round;stroke-miterlimit:4;stroke-dasharray:none;stroke-dashoffset:0;stroke-opacity:1"
         id="rect7566"
         width="15.559462"
         height="8.6590414"
         x="246.1015"
         y="256.92145"
         rx="0"
         ry="0"
         transform="matrix(0.96434207,-0.26465899,0.26367539,0.96461147,0,0)" />
    </g>
    <g
       style="display:inline;enable-background:new"
       id="g1270">
      <path
         id="path3742"
         d="m 338.46466,185.62727 -0.008,8.29355 c -2e-4,0.52523 0.45663,0.90626 0.95449,0.90622 l 13.42212,-0.008 1.06393,-2.7369 c 0.12315,-0.31794 -0.0637,-0.67043 -0.38599,-0.79269 l -14.81734,-5.61077 c -0.0761,-0.0289 -0.15164,-0.0499 -0.22956,-0.0511 z"
         style="opacity:0.2;fill:url(#linearGradient7301);fill-opacity:1;stroke:none;stroke-width:0.99999994;stroke-linecap:round;stroke-linejoin:round;stroke-miterlimit:4;stroke-dasharray:none;stroke-dashoffset:0;stroke-opacity:1" />
      <rect
         transform="matrix(1,-9.9211478e-5,-3.5170307e-4,0.99999994,0,0)"
         ry="0.4299396"
         rx="0.45731911"
         y="184.35378"
         x="338.63367"
         height="10.997351"
         width="17.996435"
         id="rect6606"
         style="fill:#ffffff;fill-opacity:1;stroke:#888a85;stroke-width:1.00000012;stroke-linecap:round;stroke-linejoin:round;stroke-miterlimit:4;stroke-dasharray:none;stroke-dashoffset:0;stroke-opacity:1" />
      <rect
         transform="matrix(1,-9.4133857e-5,-3.7063896e-4,0.99999993,0,0)"
         style="fill:url(#linearGradient7317);fill-opacity:1;stroke:#f57900;stroke-width:1.00000012;stroke-linecap:round;stroke-linejoin:miter;stroke-miterlimit:4;stroke-dasharray:none;stroke-dashoffset:0;stroke-opacity:1"
         id="rect6608"
         width="13.999993"
         height="7.0112791"
         x="340.63416"
         y="186.33463"
         rx="0"
         ry="0" />
      <rect
         transform="matrix(1,-9.4133857e-5,-3.7063897e-4,0.99999993,0,0)"
         y="188.46567"
         x="343.63678"
         height="4.9402151"
         width="4.9322658"
         id="rect6610"
         style="fill:url(#radialGradient7314);fill-opacity:1;stroke:none;stroke-width:1;stroke-linecap:round;stroke-linejoin:miter;stroke-miterlimit:4;stroke-dasharray:none;stroke-dashoffset:0;stroke-opacity:1" />
      <path
         id="path6612"
         d="m 340.56259,193.09472 c 0.77271,-0.83061 1.19654,-0.92971 3.19983,-1.67096 1.10105,0.91886 2.46338,1.42538 3.74584,0.68434 1.59861,-1.05478 2.59779,0.0835 4.12933,-1.15068 0.69957,0.3925 1.20506,0.8124 2.92532,1.25957 l -4.1e-4,1.09551 -13.99999,0.001 z"
         style="fill:#000000;fill-rule:evenodd;stroke:#000000;stroke-width:1.00000024px;stroke-linecap:butt;stroke-linejoin:miter;stroke-opacity:1" />
      <path
         style="opacity:0.75478929;fill:url(#radialGradient7310);fill-opacity:1;stroke:none;stroke-width:1;stroke-linecap:round;stroke-linejoin:miter;stroke-miterlimit:4;stroke-dashoffset:0;stroke-opacity:1"
         d="m 341.06728,186.81867 12.99782,-0.001 -10e-4,2.91891 c -6.85126,-1.27816 -11.07642,0.71862 -12.9989,2.92012 z"
         id="path6614" />
    </g>
    <g
       style="display:inline;enable-background:new"
       id="g1374"
       transform="translate(36.946329,-13.435029)">
      <g
         transform="matrix(0.6181832,-0.1696991,0.1693182,0.6195739,317.22775,181.81221)"
         id="g8707">
        <rect
           style="opacity:1;fill:#eeeeec;fill-opacity:1;stroke:#888a85;stroke-width:2.64932752;stroke-linecap:round;stroke-linejoin:round;stroke-miterlimit:4;stroke-dasharray:none;stroke-dashoffset:0;stroke-opacity:1"
           id="rect8709"
           width="38"
           height="21.999998"
           x="1.5"
           y="-77.5"
           rx="0.96564269"
           ry="0.86008656" />
        <rect
           style="opacity:1;fill:none;fill-opacity:1;stroke:#ffffff;stroke-width:1.55842805;stroke-linecap:round;stroke-linejoin:round;stroke-miterlimit:4;stroke-dasharray:none;stroke-dashoffset:0;stroke-opacity:1"
           id="rect8711"
           width="36"
           height="20"
           x="2.5"
           y="-76.5"
           rx="0"
           ry="0" />
        <g
           id="g8713">
          <rect
             ry="0"
             rx="0"
             y="-74.5"
             x="4.5"
             height="16"
             width="32"
             id="rect8715"
             style="opacity:1;fill:url(#linearGradient8755);fill-opacity:1;stroke:#729fcf;stroke-width:1.55842805;stroke-linecap:round;stroke-linejoin:miter;stroke-miterlimit:4;stroke-dasharray:none;stroke-dashoffset:0;stroke-opacity:1" />
          <path
             id="path8717"
             d="m 5,-58.5 c 1.4374991,-7.5 3.9476793,-4.798522 6.1875,-11.1875 1.313216,0.771838 1.799196,0.267024 2.8125,1.125 1.008661,1.252341 1.472316,3.231357 2,5.125 C 18.902977,-68 19.560828,-62 23.1875,-61.0625 27,-62.47312 27.5,-71 29.5,-70 c 0.817656,-0.761636 1.563694,-5.577727 2.5,-2 1,4 3.664333,8.257 4.5,12 v 1.5 z"
             style="fill:url(#linearGradient8757);fill-opacity:1;fill-rule:evenodd;stroke:url(#linearGradient8759);stroke-width:1.55842829px;stroke-linecap:butt;stroke-linejoin:miter;stroke-opacity:1" />
          <path
             id="path8719"
             d="m 5,-74 h 31 v 7 c -16.341516,-3.066748 -26.4168185,1.720898 -31,7 z"
             style="opacity:0.5249042;fill:url(#radialGradient8761);fill-opacity:1;stroke:none;stroke-width:1;stroke-linecap:round;stroke-linejoin:miter;stroke-miterlimit:4;stroke-dashoffset:0;stroke-opacity:1" />
        </g>
      </g>
      <rect
         style="display:inline;opacity:1;fill:none;fill-opacity:1;stroke:#ffffff;stroke-width:1.00000036;stroke-linecap:round;stroke-linejoin:round;stroke-miterlimit:4;stroke-dasharray:none;stroke-dashoffset:0;stroke-opacity:1"
         id="rect8721"
         width="23.077888"
         height="12.845862"
         x="259.68109"
         y="210.16727"
         rx="0"
         ry="0"
         transform="matrix(0.96432545,-0.26471952,0.26361515,0.96462794,0,0)" />
    </g>
    <g
       style="display:inline;enable-background:new"
       id="g1355"
       transform="translate(37.741825,-0.26516504)">
      <path
         id="path8735"
         d="m 307.74467,137.11165 1.26187,12.16532 c 0.0803,0.77039 0.80082,1.25998 1.52226,1.18442 l 19.44888,-2.04763 1.12166,-4.17556 c 0.12967,-0.485 -0.19522,-0.97366 -0.68101,-1.10411 l -22.33316,-5.9823 c -0.1147,-0.0308 -0.22741,-0.0502 -0.3405,-0.0402 z"
         style="opacity:0.2;fill:url(#linearGradient7544);fill-opacity:1;stroke:none;stroke-width:0.99999994;stroke-linecap:round;stroke-linejoin:round;stroke-miterlimit:4;stroke-dasharray:none;stroke-dashoffset:0;stroke-opacity:1" />
      <rect
         transform="matrix(0.99455911,-0.1041738,0.1037117,0.9946074,0,0)"
         ry="0.55250072"
         rx="0.61894536"
         y="167.09314"
         x="292.62231"
         height="14.132316"
         width="24.356756"
         id="rect8739"
         style="fill:url(#linearGradient7541);fill-opacity:1;stroke:#888a85;stroke-width:1.80000007;stroke-linecap:round;stroke-linejoin:round;stroke-miterlimit:4;stroke-dasharray:none;stroke-dashoffset:0;stroke-opacity:1" />
      <rect
         transform="matrix(0.99455911,-0.1041738,0.1037117,0.9946074,0,0)"
         ry="0"
         rx="0"
         y="167.7355"
         x="293.26328"
         height="12.847561"
         width="23.074823"
         id="rect3550"
         style="fill:none;fill-opacity:1;stroke:#ffffff;stroke-width:1;stroke-linecap:round;stroke-linejoin:round;stroke-miterlimit:4;stroke-dasharray:none;stroke-dashoffset:0;stroke-opacity:1" />
      <g
         transform="matrix(0.6374799,-0.066772,0.06662212,0.638914,314.56535,204.4919)"
         id="g3552">
        <rect
           ry="0"
           rx="0"
           y="-104.5"
           x="4.5"
           height="16"
           width="32"
           id="rect8743"
           style="opacity:1;fill:url(#linearGradient7528);fill-opacity:1;stroke:#f57900;stroke-width:1.55842805;stroke-linecap:round;stroke-linejoin:miter;stroke-miterlimit:4;stroke-dasharray:none;stroke-dashoffset:0;stroke-opacity:1" />
        <rect
           style="opacity:1;fill:url(#radialGradient7530);fill-opacity:1;stroke:none;stroke-width:1;stroke-linecap:round;stroke-linejoin:miter;stroke-miterlimit:4;stroke-dasharray:none;stroke-dashoffset:0;stroke-opacity:1"
           id="rect8745"
           width="8"
           height="8"
           x="13"
           y="-98" />
        <path
           style="fill:#000000;fill-rule:evenodd;stroke:#000000;stroke-width:1.55842829px;stroke-linecap:butt;stroke-linejoin:miter;stroke-opacity:1"
           d="m 4.5,-89 c 1.7654963,-1.895317 2.7341619,-2.121361 7.3125,-3.8125 2.517463,2.09711 5.631778,3.253296 8.5625,1.5625 3.653079,-2.406706 5.93787,0.191196 9.4375,-2.625 1.599342,0.895833 2.755113,1.854167 6.6875,2.875 v 2.5 h -32 z"
           id="path8747" />
        <path
           id="path8749"
           d="m 5,-104 h 31 v 7 c -16.341516,-3.06675 -26.4168185,1.720898 -31,7 z"
           style="opacity:0.75478929;fill:url(#radialGradient7532);fill-opacity:1;stroke:none;stroke-width:1;stroke-linecap:round;stroke-linejoin:miter;stroke-miterlimit:4;stroke-dashoffset:0;stroke-opacity:1" />
      </g>
      <rect
         transform="matrix(0.99455911,-0.1041738,0.1037117,0.9946074,0,0)"
         ry="0"
         rx="0"
         y="167.7355"
         x="293.26328"
         height="12.847561"
         width="23.074823"
         id="rect7562"
         style="display:inline;fill:none;fill-opacity:1;stroke:#ffffff;stroke-width:1;stroke-linecap:round;stroke-linejoin:round;stroke-miterlimit:4;stroke-dasharray:none;stroke-dashoffset:0;stroke-opacity:1" />
    </g>
    <g
       style="display:inline;enable-background:new"
       id="g12729"
       transform="rotate(-15.31745,596.08688,-1308.5335)">
      <rect
         ry="0.86008656"
         rx="0.96564269"
         y="-77.5"
         x="1.5"
         height="21.999998"
         width="38"
         id="rect12731"
         style="opacity:1;fill:#eeeeec;fill-opacity:1;stroke:#888a85;stroke-width:1.10000002;stroke-linecap:round;stroke-linejoin:round;stroke-miterlimit:4;stroke-dasharray:none;stroke-dashoffset:0;stroke-opacity:1" />
      <rect
         ry="0"
         rx="0"
         y="-76.5"
         x="2.5"
         height="20"
         width="36"
         id="rect12733"
         style="opacity:1;fill:none;fill-opacity:1;stroke:#ffffff;stroke-width:0.99999994;stroke-linecap:round;stroke-linejoin:round;stroke-miterlimit:4;stroke-dasharray:none;stroke-dashoffset:0;stroke-opacity:1" />
      <g
         id="g12735">
        <rect
           style="opacity:1;fill:url(#linearGradient3473);fill-opacity:1;stroke:#729fcf;stroke-width:0.99999988;stroke-linecap:round;stroke-linejoin:miter;stroke-miterlimit:4;stroke-dasharray:none;stroke-dashoffset:0;stroke-opacity:1"
           id="rect12737"
           width="32"
           height="16"
           x="4.5"
           y="-74.5"
           rx="0"
           ry="0" />
        <path
           style="fill:url(#linearGradient3475);fill-opacity:1;fill-rule:evenodd;stroke:url(#linearGradient3477);stroke-width:1px;stroke-linecap:butt;stroke-linejoin:miter;stroke-opacity:1"
           d="m 5,-58.5 c 1.4374991,-7.5 3.9476793,-4.798522 6.1875,-11.1875 1.313216,0.771838 1.799196,0.267024 2.8125,1.125 1.008661,1.252341 1.472316,3.231357 2,5.125 C 18.902977,-68 19.560828,-62 23.1875,-61.0625 27,-62.47312 27.5,-71 29.5,-70 c 0.817656,-0.761636 1.563694,-5.577727 2.5,-2 1,4 3.664333,8.257 4.5,12 v 1.5 z"
           id="path12739" />
        <path
           style="opacity:0.5249042;fill:url(#radialGradient3479);fill-opacity:1;stroke:none;stroke-width:1;stroke-linecap:round;stroke-linejoin:miter;stroke-miterlimit:4;stroke-dashoffset:0;stroke-opacity:1"
           d="m 5,-74 h 31 v 7 c -16.341516,-3.066748 -26.4168185,1.720898 -31,7 z"
           id="path12741" />
      </g>
    </g>
    <g
       style="display:inline;enable-background:new"
       id="g1451">
      <path
         id="path12755"
         d="m 349.22215,66.412853 1.96875,18.9375 c 0.12533,1.199248 1.24942,1.961379 2.375,1.84375 l 30.34375,-3.1875 1.75,-6.5 c 0.2023,-0.754994 -0.30458,-1.515667 -1.0625,-1.71875 l -34.84375,-9.3125 c -0.17895,-0.04795 -0.3548,-0.07819 -0.53125,-0.0625 z"
         style="opacity:0.2;fill:url(#linearGradient3489);fill-opacity:1;stroke:none;stroke-width:0.99999994;stroke-linecap:round;stroke-linejoin:round;stroke-miterlimit:4;stroke-dasharray:none;stroke-dashoffset:0;stroke-opacity:1" />
      <g
         transform="rotate(-5.9662429,1823.5161,-3367.1136)"
         id="g3546">
        <rect
           style="opacity:1;fill:url(#linearGradient3491);fill-opacity:1;stroke:#888a85;stroke-width:1.10000002;stroke-linecap:round;stroke-linejoin:round;stroke-miterlimit:4;stroke-dasharray:none;stroke-dashoffset:0;stroke-opacity:1"
           id="rect12758"
           width="38"
           height="21.999998"
           x="1.5"
           y="-107.5"
           rx="0.96564269"
           ry="0.86008656" />
        <rect
           style="opacity:1;fill:none;fill-opacity:1;stroke:#ffffff;stroke-width:0.99999994;stroke-linecap:round;stroke-linejoin:round;stroke-miterlimit:4;stroke-dasharray:none;stroke-dashoffset:0;stroke-opacity:1"
           id="rect12760"
           width="36"
           height="20"
           x="2.5"
           y="-106.5"
           rx="0"
           ry="0" />
        <g
           id="g12762">
          <rect
             style="opacity:1;fill:url(#linearGradient3494);fill-opacity:1;stroke:#f57900;stroke-width:0.99999988;stroke-linecap:round;stroke-linejoin:miter;stroke-miterlimit:4;stroke-dasharray:none;stroke-dashoffset:0;stroke-opacity:1"
             id="rect12764"
             width="32"
             height="16"
             x="4.5"
             y="-104.5"
             rx="0"
             ry="0" />
          <rect
             y="-98"
             x="13"
             height="8"
             width="8"
             id="rect12766"
             style="opacity:1;fill:url(#radialGradient3496);fill-opacity:1;stroke:none;stroke-width:1;stroke-linecap:round;stroke-linejoin:miter;stroke-miterlimit:4;stroke-dasharray:none;stroke-dashoffset:0;stroke-opacity:1" />
          <path
             id="path12768"
             d="m 4.5,-89 c 1.7654963,-1.895317 2.7341619,-2.121361 7.3125,-3.8125 2.517463,2.09711 5.631778,3.253296 8.5625,1.5625 3.653079,-2.406706 5.93787,0.191196 9.4375,-2.625 1.599342,0.895833 2.755113,1.854167 6.6875,2.875 v 2.5 h -32 z"
             style="fill:#000000;fill-rule:evenodd;stroke:#000000;stroke-width:1px;stroke-linecap:butt;stroke-linejoin:miter;stroke-opacity:1" />
          <path
             style="opacity:0.75478929;fill:url(#radialGradient3498);fill-opacity:1;stroke:none;stroke-width:1;stroke-linecap:round;stroke-linejoin:miter;stroke-miterlimit:4;stroke-dashoffset:0;stroke-opacity:1"
             d="m 5,-104 h 31 v 7 c -16.341516,-3.06675 -26.4168185,1.720898 -31,7 z"
             id="path12770" />
        </g>
      </g>
    </g>
  </g>
  <g
     transform="matrix(1.1111112,0,0,1.1111054,-1.2222225,-2.5623039)"
     id="g825">
    <path
       d="m 16.632893,4.85 c 0,0 2.517107,2.422712 2.517107,7.634915 0,5.18658 -2.521378,7.665085 -2.521378,7.665085 M 13.767856,7.095476 c 0,0 1.777264,1.744801 1.714032,5.404524 -0.06376,3.690079 -1.742577,5.404524 -1.742577,5.404524 M 10.85,9.221859 c 0,0 0.947187,0.794985 0.971329,3.230647 C 11.845176,14.857803 10.85,15.778141 10.85,15.778141"
       id="path3209-0"
       style="display:inline;overflow:visible;visibility:visible;opacity:0.6;fill:none;stroke:#ffffff;stroke-width:1.70000005;stroke-linecap:butt;stroke-linejoin:miter;stroke-miterlimit:4;stroke-dasharray:none;stroke-dashoffset:0;stroke-opacity:1;marker:none;enable-background:accumulate" />
    <path
       d="m 2,10 v 5 h 2 l 4,4 V 6 l -4,4 z"
       id="path2387-4"
       style="opacity:0.6;fill:#ffffff;fill-opacity:1;fill-rule:evenodd;stroke:none" />
    <path
       d="m 2,9 v 5 h 2 l 4,4 V 5 L 4,9 Z"
       id="path2387"
       style="opacity:0.7;fill:url(#linearGradient2393);fill-opacity:1;fill-rule:evenodd;stroke:none" />
    <path
       d="m 16.632893,3.85 c 0,0 2.517107,2.422712 2.517107,7.634915 0,5.18658 -2.521378,7.665085 -2.521378,7.665085 M 13.767856,6.095476 c 0,0 1.777264,1.744801 1.714032,5.404524 -0.06376,3.690079 -1.742577,5.404524 -1.742577,5.404524 M 10.85,8.221859 c 0,0 0.947187,0.794985 0.971329,3.230647 C 11.845176,13.857803 10.85,14.778141 10.85,14.778141"
       id="path3209"
       style="display:inline;overflow:visible;visibility:visible;opacity:0.7;fill:none;stroke:url(#linearGradient2390);stroke-width:1.70000005;stroke-linecap:butt;stroke-linejoin:miter;stroke-miterlimit:4;stroke-dasharray:none;stroke-dashoffset:0;stroke-opacity:1;marker:none;enable-background:accumulate" />
  </g>
  <g
     id="g4474"
     transform="translate(-1.9927125,-2.0072939)">
    <path
       d="m 16.482179,16.507295 v -3 h 4 v 3 h 3 v 4 h -3 v 2.999991 h -4 v -2.999991 h -2.989465 v -4 z"
       id="path2262-8"
       style="color:#000000;display:inline;overflow:visible;visibility:visible;fill:url(#radialGradient3900-3);fill-opacity:1;fill-rule:nonzero;stroke:none;stroke-width:0.98542744;marker:none;enable-background:accumulate" />
    <path
       d="M 17.5,18.004404 V 14.5 h 2 V 18 m 0,1 v 3.5 h -2 V 19"
       id="path2272"
       style="display:inline;opacity:0.5;fill:none;stroke:url(#linearGradient3030);stroke-width:1;stroke-linecap:butt;stroke-linejoin:miter;stroke-miterlimit:4;stroke-dasharray:none;stroke-opacity:1" />
    <path
       d="m 16.482179,16.507295 v -3 h 4 v 3 h 3 v 4 h -3 v 2.999991 h -4 v -2.999991 h -2.989465 v -4 z"
       id="path2262-2"
       style="color:#000000;clip-rule:nonzero;display:inline;overflow:visible;visibility:visible;opacity:0.5;isolation:auto;mix-blend-mode:normal;color-interpolation:sRGB;color-interpolation-filters:linearRGB;solid-color:#000000;solid-opacity:1;fill:none;fill-opacity:1;fill-rule:nonzero;stroke:#0f5a00;stroke-width:1;stroke-linecap:round;stroke-linejoin:round;stroke-miterlimit:4;stroke-dasharray:none;stroke-dashoffset:0;stroke-opacity:1;marker:none;color-rendering:auto;image-rendering:auto;shape-rendering:auto;text-rendering:auto;enable-background:accumulate" />
    <path
       d="m 20,17.507295 2.482179,-0.0073 v 2 L 20,19.507295 m -3,0 -2.5,-0.0073 v -2 l 2.5,0.0073"
       id="path2272-2"
       style="display:inline;opacity:0.5;fill:none;stroke:url(#linearGradient3030-1);stroke-width:1;stroke-linecap:butt;stroke-linejoin:miter;stroke-miterlimit:4;stroke-dasharray:none;stroke-opacity:1" />
  </g>
</svg>
